{
  "/api/*": {
    "target": {
      "host": "localhost",
      "protocol": "http:",
      "port": 8081
    },
    "secure": false,
    "pathRewrite": {"^/api" : "http://localhost:8081/api/"},
    "logLevel": "info"
  }
}
